[
    {
        "value" : "GMT-11:00",
        "timeZoneName" : "Samoa Standard Time (GMT-11:00)"
    },
    {
        "value" : "GMT-10:00",
        "timeZoneName" : "Hawaii Standard Time (GMT-10:00)"
    },
    {
        "value" : "GMT-09:30",
        "timeZoneName" : "Marquesas Islands Time (GMT-09:30)"
    },
    {
        "value" : "GMT-08:00",
        "timeZoneName" : "Pacific Standard Time (GMT-08:00)"
    },
    {
        "value" : "GMT-07:00",
        "timeZoneName" : "Mountain Standard Time (GMT-07:00)"
    },
    {
        "value" : "GMT-06:00",
        "timeZoneName" : "Central Standard Time (GMT-06:00)"
    },
    {
        "value" : "GMT-05:00",
        "timeZoneName" : "Eastern Standard Time (GMT-05:00)"
    },
    {
        "value" : "GMT-4:00",
        "timeZoneName" : "Eastern Daylight Time (GMT-4:00)"
    },
    {
        "value" : "GMT-03:00",
        "timeZoneName" : "Argentina/Brasilia Time (GMT-03:00)"
    },
    {
        "value" : "GMT",
        "timeZoneName" : "Greenwich Mean Time (GMT)"
    },
    {
        "value" : "UTC",
        "timeZoneName" : "Cordinated Universal Time (GMT)"
    },
    {
        "value" : "GMT+01:00",
        "timeZoneName" : "British Summer/Central European Time (GMT+01:00)"
    },
    {
        "value" : "GMT+02:00",
        "timeZoneName" : "Central Africa/Eastern European Time (GMT+02:00)"
    },
    {
        "value" : "GMT+03:00",
        "timeZoneName" : "East Africa Time (GMT+03:00)"
    },
    {
        "value" : "GMT+03:30",
        "timeZoneName" : "Iran Standard Time (GMT+03:30)"
    },
    {
        "value" : "GMT+04:00",
        "timeZoneName" : "Gulf Standard Time (GMT+04:00)"
    },
    {
        "value" : "GMT+5:00",
        "timeZoneName" : "Pakistan Standard Time(GMT+5:00)"
    },
    {
        "value" : "GMT+05:30",
        "timeZoneName" : "Indian Standard Time (GMT+05:30)"
    },
    {
        "value" : "GMT+06:00",
        "timeZoneName" : "Bangladesh Standard Time (GMT+06:00)"
    },
    {
        "value" : "GMT+07:00",
        "timeZoneName" : "Vietnam Standard Time (GMT+07:00)"
    },
    {
        "value" : "GMT+08:00",
        "timeZoneName" : "China Standard Time (GMT+08:00)"
    },
    {
        "value" : "GMT+09:00",
        "timeZoneName" : "Japan Standard Time (GMT+09:00)"
    },
    {
        "value" : "GMT+09:30",
        "timeZoneName" : "Australian Central Standard Time (GMT+09:30)"
    },
    {
        "value" : "GMT+10:00",
        "timeZoneName" : "Australian Eastern Standard Time (GMT+10:00)"
    },
    {
        "value" : "GMT+11:00",
        "timeZoneName" : "Solomon Islands Time (GMT+11:00)"
    },
    {
        "value" : "GMT+12:00",
        "timeZoneName" : "New Zealand Standard Time (GMT+12:00)"
    }
]